.................
----------------------------------------------------------------------
Ran 17 tests in 24.224s

OK
Name             Stmts   Miss Branch BrPart  Cover   Missing
------------------------------------------------------------
Cache.py             3      0      0      0   100%
Collatz.py          41      1     22      2    95%   55->69, 58->59, 59
TestCollatz.py      72      0      0      0   100%
------------------------------------------------------------
TOTAL              116      1     22      2    98%