....................
----------------------------------------------------------------------
Ran 20 tests in 0.302s

OK
Name             Stmts   Miss Branch BrPart  Cover   Missing
------------------------------------------------------------
Collatz.py          42      0     14      0   100%
TestCollatz.py      82      0      0      0   100%
------------------------------------------------------------
TOTAL              124      0     14      0   100%
